<svg width="20" height="13" viewBox="0 0 20 13" fill="none" xmlns="http://www.w3.org/2000/svg">
<path d="M1.87003 0.489989L0.100025 2.25999L10 12.16L19.9 2.25999L18.13 0.48999L10 8.61999L1.87003 0.489989Z" fill="black"/>
</svg>
